<?xml version="1.0" encoding="utf-8"?>
<!-- Generator: Adobe Illustrator 19.0.0, SVG Export Plug-In . SVG Version: 6.00 Build 0)  -->
<svg version="1.1" id="Modo_de_aislamiento" xmlns="http://www.w3.org/2000/svg" xmlns:xlink="http://www.w3.org/1999/xlink"
	 x="0px" y="0px" viewBox="334.8 400.7 492.6 41.7" style="enable-background:new 334.8 400.7 492.6 41.7;" xml:space="preserve">
<style type="text/css">
	.st0{fill:#5E5E61;}
	.st1{fill:#A3BD31;}
	.st2{font-family:'MyriadPro-Regular';}
	.st3{font-size:17.1519px;}
</style>
<g>
	<g id="Capa_1">
		<g>
			<path d="M709.2,413v19.6c0,0.5-0.4,1-1,1h-3.3c-0.5,0-1-0.4-1-1V413c0-0.5,0.4-1,1-1h3.3C708.7,412,709.2,412.5,709.2,413z
				 M734.5,404.1v28.5c0,0.5-0.4,1-1,1h-3c-0.5,0-1-0.4-1.1-1l-0.1-1c-0.1-0.4-0.4-0.6-0.7-0.5c-0.2,0.1-0.3,0.3-0.5,0.5
				c-0.8,0.7-2.9,2.5-5.8,2.5c-6.3,0-11.1-4.2-11.1-11.2c0-7.4,4.7-11.2,10.9-11.2c2.3,0,5.8,1.2,7.1,3.4v-10.9c0-0.5,0.4-1,1-1h3.3
				C734.1,403.1,734.5,403.6,734.5,404.1z M728.9,422.8c0-3.7-2.9-6.3-6.2-6.3c-3.4,0-6.1,2.4-6.1,6.3c0,3.7,2.7,6.3,6.1,6.3
				C726,429.1,728.9,426.7,728.9,422.8z"/>
			<path class="st0" d="M784.5,434c-7.5,0-10.9-5.8-10.9-11.2c0-5.5,3.4-11.1,10.9-11.1c3.2,0,5.8,1,7.8,3s3.1,4.9,3.1,8.2
				C795.3,428.2,791.9,434,784.5,434z M784.5,414.3c-2.4,0-4.5,0.8-5.9,2.2c-1.5,1.5-2.4,3.8-2.4,6.3c0,4.1,2.6,8.6,8.3,8.6
				c5.7,0,8.3-4.5,8.3-8.6C792.7,418.6,790.2,414.3,784.5,414.3z M805.8,433.9c-4,0-8.4-2.7-8.4-8.6v-11.8c0-0.8,0.6-1.5,1.3-1.5
				s1.3,0.7,1.3,1.5v11.8c0,4.2,3,6.1,5.8,6.1c2.8,0,5.8-1.9,5.8-6.1v-11.8c0-0.8,0.6-1.5,1.3-1.5s1.3,0.7,1.3,1.5v11.8
				C814.2,431,810,433.9,805.8,433.9z M763.9,433.6c-0.7,0-1.3-0.7-1.3-1.5v-6.3c0-0.4-0.2-1.1-0.4-1.5l-7-10.7
				c-0.6-0.9-0.6-0.9-0.6-1.1c0-0.6,0.3-0.6,1.5-0.6c0.7,0,1.5,0.4,1.9,1l5.9,9.2c0,0,0,0.1,0.1,0.1c0,0,0,0,0.1-0.1l5.9-9.2
				c0.4-0.6,1.2-1,1.9-1c1.2,0,1.5,0,1.5,0.6c0,0.2,0,0.2-0.6,1.1l-7,10.7c-0.2,0.4-0.4,1-0.4,1.4v6.3
				C765.2,433,764.6,433.6,763.9,433.6z M750.9,433.6c-0.7,0-1.3-0.7-1.3-1.5v-2.7c0-0.2-0.2-0.4-0.4-0.4h-10.7
				c-0.8,0-1.5-0.6-1.6-1.4c-0.1-0.7,0.1-1.6,0.6-2.1l10.6-12.5c0.4-0.5,1.3-0.9,2-0.9h0.7c0.8,0,1.5,0.7,1.5,1.5V426
				c0,0.2,0.2,0.4,0.4,0.4h0.7c0.8,0,1.5,0.6,1.5,1.3c0,0.7-0.7,1.3-1.5,1.3h-0.7c-0.2,0-0.4,0.2-0.4,0.4v2.7
				C752.2,433,751.6,433.6,750.9,433.6z M749.2,426.3c0.2,0,0.4-0.2,0.4-0.4v-10.7l-9.5,11.1H749.2z"/>
			<circle cx="685.3" cy="422.8" r="6.5"/>
			<path class="st1" d="M671.1,423.6l-1.9,1.9c-0.4,0.4-1.2,0.4-1.6,0l-1.9-1.9c-0.4-0.4-0.4-1.2,0-1.6l8-8c0.4-0.4,1.2-1.2,1.6-1.6
				c0,0,0.1-0.1,0.3-0.3c2.5-2.3,5.9-3.7,9.6-3.7c0.3,0,0.3,0,0.3,0c0.4,0,0.3,0.4-0.1,0.8l-6.6,6.6c-0.4,0.4-1.2,1.2-1.6,1.6
				l-4.5,4.5C672.3,422.5,671.6,423.2,671.1,423.6z M691.8,410.1c-1.3-0.6-3.1-1.3-4-0.4l-0.6,0.6c-0.4,0.4-1.2,1.2-1.6,1.6
				l-0.8,0.8c-0.4,0.4-0.2,0.8,0.3,0.8c2.1-0.1,3.9,0.7,4.8,1.2c2.8,1.6,4.7,4.7,4.7,8.1c0,5.2-4.2,9.4-9.4,9.4
				c-2.3,0-4.5-0.8-6.2-2.4c-0.2-0.2-0.7-0.7-0.7-0.7c-0.4-0.4-1.2-1.2-1.6-1.6l-0.6-0.6l0,0l0,0l-2-2c-0.4-0.4-1.2-0.4-1.6,0
				l-1.9,1.9c-0.4,0.4-0.4,1.2,0,1.6l1.8,1.8l0,0l0.8,0.8c0.4,0.4,1.2,1.2,1.6,1.6c0,0,0.6,0.6,0.9,0.9c2.5,2.3,5.9,3.6,9.5,3.6
				c7.9,0,14.4-6.4,14.4-14.4C699.6,417.3,696.5,412.5,691.8,410.1z"/>
		</g>
		<text transform="matrix(1 0 0 1 816.6711 423.8039)" class="st2 st3">®</text>
	</g>
	<g>
		<path d="M347.1,421.4l-1.2,11.5h-4.6l-2.4-21.5h3.3l1.8,16.9l1.6-16.9h3.3l1.7,17.1l1.8-17.1h2.9l-2.4,21.5h-4.5L347.1,421.4z"/>
		<path d="M363.3,420.5h4.6v3.1h-4.6v6.3h5.8v3.1h-9.2v-21.5h9.2v3.1h-5.8V420.5z"/>
		<path d="M384.4,416.4v0.8c0,2.2-0.7,3.6-2.2,4.3c1.8,0.7,2.5,2.3,2.5,4.6v1.8c0,3.3-1.8,5.1-5.1,5.1h-5.3v-21.5h5.1
			C382.9,411.4,384.4,413,384.4,416.4z M377.7,414.5v5.7h1.3c1.3,0,2-0.6,2-2.3v-1.2c0-1.5-0.5-2.2-1.7-2.2H377.7z M377.7,423.2v6.6
			h1.9c1.1,0,1.8-0.5,1.8-2.1v-1.9c0-2-0.6-2.6-2.2-2.6H377.7z"/>
		<path d="M394.4,411.2c3.3,0,5,2,5,5.4v0.7h-3.2v-0.9c0-1.5-0.6-2.1-1.7-2.1s-1.7,0.6-1.7,2.1c0,4.4,6.6,5.3,6.6,11.4
			c0,3.4-1.7,5.4-5,5.4c-3.3,0-5-2-5-5.4v-1.3h3.2v1.5c0,1.5,0.7,2.1,1.8,2.1s1.8-0.6,1.8-2.1c0-4.4-6.6-5.3-6.6-11.4
			C389.4,413.1,391.1,411.2,394.4,411.2z"/>
		<path d="M404.4,411.4h3.4v21.5h-3.4V411.4z"/>
		<path d="M412.3,411.4h10.4v3.1h-3.5v18.4h-3.4v-18.4h-3.5V411.4z"/>
		<path d="M430.7,420.5h4.6v3.1h-4.6v6.3h5.8v3.1h-9.2v-21.5h9.2v3.1h-5.8V420.5z"/>
		<path d="M449.4,420.6h6.1v3.1h-6.1V420.6z"/>
		<path d="M473.2,411.2c3.3,0,5,2,5,5.4v0.7H475v-0.9c0-1.5-0.6-2.1-1.7-2.1c-1.1,0-1.7,0.6-1.7,2.1c0,4.4,6.6,5.3,6.6,11.4
			c0,3.4-1.7,5.4-5,5.4c-3.3,0-5-2-5-5.4v-1.3h3.2v1.5c0,1.5,0.7,2.1,1.8,2.1s1.8-0.6,1.8-2.1c0-4.4-6.6-5.3-6.6-11.4
			C468.3,413.1,470,411.2,473.2,411.2z"/>
		<path d="M486.6,420.5h4.6v3.1h-4.6v6.3h5.8v3.1h-9.2v-21.5h9.2v3.1h-5.8V420.5z"/>
		<path d="M497.3,416.6c0-3.4,1.8-5.4,5.1-5.4c3.3,0,5.1,2,5.1,5.4v11.2c0,3.4-1.8,5.4-5.1,5.4c-3.3,0-5.1-2-5.1-5.4V416.6z
			 M500.7,428c0,1.5,0.7,2.1,1.8,2.1c1.1,0,1.8-0.6,1.8-2.1v-11.6c0-1.5-0.7-2.1-1.8-2.1c-1.1,0-1.8,0.6-1.8,2.1V428z"/>
		<path d="M520.5,420.6h6.1v3.1h-6.1V420.6z"/>
		<path d="M547,426.7l2.3-15.3h4.7v21.5h-3.2v-15.4l-2.3,15.4h-3.2l-2.5-15.2v15.2h-2.9v-21.5h4.7L547,426.7z"/>
		<path d="M562.9,420.5h4.6v3.1h-4.6v6.3h5.8v3.1h-9.2v-21.5h9.2v3.1h-5.8V420.5z M567.7,406.9l-3.1,3.4h-2.3l2.1-3.4H567.7z"/>
		<path d="M572.9,411.4h10.4v3.1h-3.5v18.4h-3.4v-18.4h-3.5V411.4z"/>
		<path d="M595,432.9c-0.2-0.6-0.3-0.9-0.3-2.6v-3.4c0-2-0.7-2.7-2.2-2.7h-1.2v8.8h-3.4v-21.5h5.1c3.5,0,5,1.6,5,4.9v1.7
			c0,2.2-0.7,3.7-2.2,4.4c1.7,0.7,2.2,2.3,2.2,4.6v3.3c0,1,0,1.8,0.4,2.6H595z M591.3,414.5v6.6h1.3c1.3,0,2-0.6,2-2.3v-2.1
			c0-1.5-0.5-2.2-1.7-2.2H591.3z"/>
		<path d="M603.3,411.4h3.4v21.5h-3.4V411.4z"/>
		<path d="M622,424.9v2.9c0,3.4-1.7,5.4-5,5.4c-3.3,0-5-2-5-5.4v-11.2c0-3.4,1.7-5.4,5-5.4c3.3,0,5,2,5,5.4v2.1h-3.2v-2.3
			c0-1.5-0.7-2.1-1.8-2.1c-1.1,0-1.8,0.6-1.8,2.1V428c0,1.5,0.7,2.1,1.8,2.1c1.1,0,1.8-0.6,1.8-2.1v-3.1H622z"/>
		<path d="M638.1,432.9h-3.4l-0.6-3.9h-4.1l-0.6,3.9h-3.1l3.4-21.5h4.9L638.1,432.9z M630.4,426.1h3.3l-1.6-10.9L630.4,426.1z"/>
		<path d="M647.3,411.2c3.3,0,5,2,5,5.4v0.7H649v-0.9c0-1.5-0.6-2.1-1.7-2.1c-1.1,0-1.7,0.6-1.7,2.1c0,4.4,6.6,5.3,6.6,11.4
			c0,3.4-1.7,5.4-5,5.4s-5-2-5-5.4v-1.3h3.2v1.5c0,1.5,0.7,2.1,1.8,2.1c1.1,0,1.7-0.6,1.7-2.1c0-4.4-6.6-5.3-6.6-11.4
			C642.3,413.1,644,411.2,647.3,411.2z"/>
	</g>
</g>
</svg>
