<?xml version="1.0" encoding="utf-8"?>
<!-- Generator: Adobe Illustrator 15.0.0, SVG Export Plug-In . SVG Version: 6.00 Build 0)  -->
<!DOCTYPE svg PUBLIC "-//W3C//DTD SVG 1.1//EN" "http://www.w3.org/Graphics/SVG/1.1/DTD/svg11.dtd">
<svg version="1.1" id="Capa_1" xmlns="http://www.w3.org/2000/svg" xmlns:xlink="http://www.w3.org/1999/xlink" x="0px" y="0px"
	 width="190.518px" height="12.961px" viewBox="0 0 190.518 12.961" enable-background="new 0 0 190.518 12.961"
	 xml:space="preserve">
<path fill="#99979D" d="M132.974,4.104h0.03c0.236-0.751,1.093-1.918,2.757-1.918c2.335,0,3.411,1.845,3.411,3.986
	c0,2.304-1.092,3.956-3.411,3.956c-1.25,0-2.316-0.531-2.757-1.758h-0.03v4.298h-0.563V2.361h0.563V4.104z M138.615,6.172
	c0-1.729-0.815-3.5-2.853-3.5c-2.018,0-2.771,1.699-2.771,3.5c0,1.8,0.634,3.468,2.771,3.468
	C137.744,9.64,138.615,8.047,138.615,6.172"/>
<path fill="#99979D" d="M146.498,9.949h-0.563V8.326h-0.029c-0.385,1.137-1.533,1.802-2.715,1.802c-2.674,0-2.702-2.141-2.702-3.071
	V2.361h0.56v4.797c0,0.782,0.089,2.481,2.156,2.481c1.698,0,2.731-1.313,2.731-3.172V2.361h0.563L146.498,9.949L146.498,9.949z"/>
<path fill="#99979D" d="M148.151,2.361h0.56v1.625h0.032c0.382-1.135,1.532-1.801,2.716-1.801c2.669,0,2.7,2.14,2.7,3.071v4.694
	h-0.562V5.152c0-0.782-0.087-2.48-2.154-2.48c-1.702,0-2.732,1.315-2.732,3.174v4.104h-0.56V2.361L148.151,2.361z"/>
<path fill="#99979D" d="M158.604,2.849h-1.657v5.302c0,1.224,0.577,1.341,1.64,1.312v0.486c-1.149,0.075-2.258-0.087-2.198-1.798
	V2.849h-1.403v-0.49h1.403V0h0.559v2.359h1.657V2.849z"/>
<path fill="#99979D" d="M162.765,2.185c2.23,0,3.484,1.817,3.484,3.972c0,2.155-1.254,3.974-3.484,3.974
	c-2.229,0-3.484-1.818-3.484-3.974C159.281,4.002,160.536,2.185,162.765,2.185 M162.765,9.64c1.904,0,2.926-1.668,2.926-3.482
	c0-1.817-1.021-3.486-2.926-3.486c-1.907,0-2.926,1.67-2.926,3.486C159.839,7.972,160.858,9.64,162.765,9.64"/>
<path fill="#9E151B" d="M168.73,9.949h-0.886V2.303h0.886v1.432h0.03c0.484-1.227,1.207-1.641,2.494-1.641v0.96
	c-1.993-0.043-2.524,1.434-2.524,3.146V9.949L168.73,9.949z"/>
<path fill="#9E151B" d="M171.948,6.127c0-2.229,1.182-4.033,3.543-4.033c2.392,0,3.542,1.788,3.542,4.033
	c0,2.421-1.402,4.032-3.542,4.032C173.54,10.128,171.948,8.799,171.948,6.127 M175.49,2.894c-1.861,0-2.597,1.58-2.597,3.233
	c0,1.906,0.899,3.234,2.597,3.234c1.86,0,2.596-1.595,2.596-3.234C178.073,4.326,177.367,2.894,175.49,2.894"/>
<path fill="#9E151B" d="M181.781,2.065v8.904c0,1.301-0.118,1.992-1.534,1.992c-0.194,0-0.386-0.015-0.58-0.06V12.12
	c1.022,0.131,1.226-0.234,1.226-1.034V2.065H181.781z"/>
<path fill="#9E151B" d="M183.435,6.127c0-2.229,1.178-4.033,3.54-4.033c2.393,0,3.543,1.788,3.543,4.033
	c0,2.421-1.402,4.032-3.543,4.032C185.026,10.128,183.435,8.799,183.435,6.127 M186.975,2.894c-1.858,0-2.597,1.58-2.597,3.233
	c0,1.906,0.901,3.234,2.597,3.234c1.861,0,2.597-1.595,2.597-3.234C189.56,4.326,188.85,2.894,186.975,2.894"/>
<path fill="#1A1A1A" d="M0,10.149V2.086h3.607c1.647,0,2.47,0.757,2.47,2.273c0,1.642-1.125,2.636-3.379,2.98L2.485,6.009
	c1.352-0.243,2.03-0.78,2.03-1.605c0-0.669-0.332-1.004-1.002-1.004H1.495v6.748L0,10.149L0,10.149z"/>
<path fill="#1A1A1A" d="M6.639,7.189c0-1.986,0.979-2.977,2.931-2.977c1.955,0,2.932,0.991,2.932,2.977
	c0,1.979-0.978,2.969-2.932,2.969C7.625,10.158,6.647,9.168,6.639,7.189 M9.572,9.021c0.958,0,1.438-0.619,1.438-1.854
	c0-1.208-0.479-1.81-1.438-1.81S8.132,5.96,8.132,7.166C8.132,8.402,8.612,9.021,9.572,9.021"/>
<path fill="#1A1A1A" d="M13.629,9.865V8.627c0.656,0.262,1.417,0.393,2.278,0.393c0.642,0,0.961-0.207,0.961-0.619
	c0-0.396-0.215-0.593-0.647-0.593h-1.07c-1.205,0-1.804-0.59-1.804-1.775c0-1.241,0.876-1.86,2.633-1.86
	c0.744,0,1.441,0.113,2.101,0.337V5.75c-0.66-0.262-1.372-0.394-2.14-0.394c-0.808,0-1.215,0.206-1.215,0.621
	c0,0.393,0.234,0.591,0.707,0.591h0.958c1.316,0,1.973,0.593,1.973,1.775c0,1.241-0.838,1.86-2.515,1.86
	C15.025,10.204,14.285,10.091,13.629,9.865"/>
<path fill="#1A1A1A" d="M20.899,3.27h-1.493V2.086h1.493V3.27z M20.899,10.149h-1.493v-5.92h1.493V10.149z"/>
<path fill="#1A1A1A" d="M26.68,9.978c-0.491,0.113-0.998,0.171-1.524,0.171c-2.102,0-3.158-1.024-3.158-3.072
	c0-1.897,1.056-2.847,3.158-2.847c0.526,0,1.034,0.056,1.524,0.169v1.185c-0.491-0.113-0.959-0.168-1.41-0.168
	c-1.185,0-1.776,0.553-1.776,1.663c0,1.259,0.591,1.891,1.776,1.891c0.451,0,0.919-0.059,1.41-0.171V9.978z"/>
<path fill="#1A1A1A" d="M29.162,3.27h-1.496V2.086h1.496V3.27z M29.162,10.149h-1.496v-5.92h1.496V10.149z"/>
<path fill="#1A1A1A" d="M30.284,7.189c0-1.986,0.979-2.977,2.932-2.977c1.957,0,2.932,0.991,2.932,2.977
	c0,1.979-0.975,2.969-2.932,2.969C31.272,10.158,30.292,9.168,30.284,7.189 M33.218,9.021c0.958,0,1.439-0.619,1.439-1.854
	c0-1.208-0.48-1.81-1.439-1.81c-0.955,0-1.438,0.602-1.438,1.81C31.779,8.402,32.261,9.021,33.218,9.021"/>
<path fill="#1A1A1A" d="M37.278,10.149v-5.92h1.152l0.187,0.869c0.571-0.581,1.215-0.869,1.941-0.869c1.401,0,2.1,0.729,2.1,2.186
	v3.733h-1.493V6.414c0-0.652-0.324-0.979-0.974-0.979c-0.485,0-0.956,0.192-1.42,0.581v4.131L37.278,10.149L37.278,10.149z"/>
<path fill="#1A1A1A" d="M43.789,8.305c0-1.178,0.851-1.764,2.569-1.764c0.402,0,0.804,0.038,1.206,0.113V6.209
	c0-0.532-0.381-0.795-1.143-0.795c-0.651,0-1.367,0.093-2.158,0.282V4.51c0.791-0.188,1.507-0.281,2.158-0.281
	c1.757,0,2.637,0.65,2.637,1.951v3.968h-0.867l-0.532-0.531c-0.514,0.354-1.081,0.531-1.702,0.531
	C44.512,10.149,43.789,9.533,43.789,8.305 M46.359,7.554c-0.72,0-1.076,0.245-1.076,0.733c0,0.526,0.297,0.789,0.9,0.789
	c0.495,0,0.955-0.153,1.382-0.463V7.667C47.185,7.594,46.785,7.554,46.359,7.554"/>
<path fill="#1A1A1A" d="M50.467,10.149v-5.92h1.156l0.174,0.857c0.532-0.571,1.169-0.857,1.91-0.857
	c0.744,0,1.255,0.272,1.529,0.813c0.606-0.54,1.237-0.813,1.901-0.813c1.358,0,2.038,0.75,2.038,2.249v3.671h-1.493V6.421
	c0-0.658-0.297-0.985-0.894-0.985c-0.441,0-0.869,0.198-1.278,0.597v4.115H54.02V6.439c0-0.67-0.277-1.003-0.825-1.003
	c-0.434,0-0.849,0.198-1.233,0.597v4.115L50.467,10.149L50.467,10.149z"/>
<path fill="#1A1A1A" d="M62.077,3.27h-1.493V2.086h1.493V3.27z M62.077,10.149h-1.493v-5.92h1.493V10.149z"/>
<path fill="#1A1A1A" d="M65.986,4.231c1.796,0,2.696,0.914,2.696,2.749c0,0.244-0.018,0.488-0.053,0.732h-3.931
	c0,0.834,0.613,1.251,1.839,1.251c0.601,0,1.198-0.057,1.793-0.169v1.184c-0.519,0.113-1.156,0.17-1.907,0.17
	c-2.144,0-3.218-1.009-3.218-3.028C63.206,5.194,64.133,4.231,65.986,4.231 M64.698,6.674h2.527V6.631c0-0.818-0.412-1.23-1.24-1.23
	C65.193,5.4,64.768,5.824,64.698,6.674"/>
<path fill="#1A1A1A" d="M69.801,10.149v-5.92h1.157l0.183,0.869c0.571-0.581,1.214-0.869,1.941-0.869
	c1.405,0,2.099,0.729,2.099,2.186v3.733H73.69V6.414c0-0.652-0.324-0.979-0.974-0.979c-0.485,0-0.958,0.192-1.419,0.581v4.131
	L69.801,10.149L69.801,10.149z"/>
<path fill="#1A1A1A" d="M76.51,3.27h1.104l0.223,0.959h1.489V5.41h-1.323v2.725c0,0.552,0.239,0.828,0.719,0.828h0.604v1.185h-1.326
	c-0.995,0-1.49-0.533-1.49-1.594L76.51,3.27L76.51,3.27z"/>
<path fill="#1A1A1A" d="M80.06,7.189c0-1.986,0.977-2.977,2.931-2.977c1.954,0,2.935,0.991,2.935,2.977
	c0,1.979-0.981,2.969-2.935,2.969C81.044,10.158,80.069,9.168,80.06,7.189 M82.991,9.021c0.96,0,1.438-0.619,1.438-1.854
	c0-1.208-0.478-1.81-1.438-1.81c-0.958,0-1.436,0.602-1.436,1.81C81.554,8.402,82.032,9.021,82.991,9.021"/>
<polygon fill="#1A1A1A" points="89.079,2.086 90.592,2.086 91.457,7.875 93.554,2.086 94.99,2.086 96.954,7.651 97.868,2.086 
	99.34,2.086 97.822,10.149 96.403,10.149 94.19,3.825 91.807,10.149 90.403,10.149 "/>
<path fill="#1A1A1A" d="M102.739,4.231c1.796,0,2.695,0.914,2.695,2.749c0,0.244-0.017,0.488-0.05,0.732h-3.931
	c0,0.834,0.613,1.251,1.84,1.251c0.596,0,1.191-0.057,1.79-0.169v1.184c-0.521,0.113-1.159,0.17-1.906,0.17
	c-2.146,0-3.22-1.009-3.22-3.028C99.957,5.194,100.884,4.231,102.739,4.231 M101.453,6.674h2.523V6.631
	c0-0.818-0.414-1.23-1.238-1.23C101.948,5.4,101.522,5.824,101.453,6.674"/>
<path fill="#1A1A1A" d="M106.553,2.086h1.495V4.68c0.446-0.302,0.944-0.452,1.493-0.452c1.683,0,2.525,0.946,2.525,2.84
	c0,2.053-0.965,3.079-2.892,3.079c-0.812,0-1.687-0.08-2.622-0.242V2.086z M108.048,8.78c0.339,0.108,0.737,0.161,1.188,0.161
	c0.903,0,1.354-0.636,1.354-1.91c0-1.041-0.391-1.561-1.166-1.561c-0.503,0-0.963,0.1-1.376,0.304V8.78z"/>
<path fill="#1A1A1A" d="M115.73,2.086h1.493V4.68c0.447-0.302,0.948-0.452,1.495-0.452c1.682,0,2.525,0.946,2.525,2.84
	c0,2.053-0.965,3.079-2.893,3.079c-0.812,0-1.686-0.08-2.621-0.242V2.086z M117.223,8.78c0.341,0.108,0.739,0.161,1.191,0.161
	c0.901,0,1.351-0.636,1.351-1.91c0-1.041-0.388-1.561-1.164-1.561c-0.504,0-0.963,0.1-1.378,0.304V8.78z"/>
<path fill="#1A1A1A" d="M121.666,4.229h1.585l1.495,4.261l1.459-4.261h1.555l-2.456,6.094c-0.438,1.075-1.136,1.839-2.095,2.294
	l-0.721-1.021c0.661-0.289,1.142-0.761,1.442-1.415L121.666,4.229z"/>
</svg>
