<?xml version="1.0" encoding="utf-8"?>
<!-- Generator: Adobe Illustrator 19.0.0, SVG Export Plug-In . SVG Version: 6.00 Build 0)  -->
<svg version="1.1" id="Capa_1" xmlns="http://www.w3.org/2000/svg" xmlns:xlink="http://www.w3.org/1999/xlink" x="0px" y="0px"
	 viewBox="0 0 152.8 14.2" style="enable-background:new 0 0 152.8 14.2;" xml:space="preserve">
<style type="text/css">
	.st0{fill:#030104;}
</style>
<g id="XMLID_209_">
	<path id="XMLID_361_" class="st0" d="M1591.8,993.3c-0.6-1.8-2.3-3-4.1-3h-0.3c0.6-1.2,0.9-2.5,0.9-3.9c0-1.2-0.2-2.3-0.7-3.4
		c1.2-0.7,2.1-2.1,2.1-3.6c0-2.3-1.9-4.2-4.2-4.2c-1.7,0-3.1,1-3.8,2.4c-0.8-0.2-1.7-0.4-2.5-0.4c-0.9,0-1.7,0.1-2.5,0.4
		c-0.7-1.4-2.1-2.4-3.8-2.4c-2.3,0-4.2,1.9-4.2,4.2c0,1.5,0.8,2.9,2.1,3.6c-0.4,1-0.7,2.2-0.7,3.4c0,1.4,0.3,2.7,0.9,3.9h-0.3
		c-1.9,0-3.5,1.2-4.1,3c-0.6,1.7-0.8,3.4-0.8,5.2v0c0,1.3,0.8,2.3,1.9,2.8c-0.2,0.8-0.3,1.6-0.2,2.5c0.3,2.9,2.4,5,4.8,5
		c0.1,0,0.3,0,0.4,0c0.9-0.1,1.7-0.5,2.3-1.1c1.3,0.7,2.7,1.1,4.2,1.1s3-0.4,4.2-1.1c0.7,0.6,1.5,1,2.3,1.1c0.1,0,0.3,0,0.4,0
		c2.4,0,4.5-2.2,4.8-5c0.1-0.9,0-1.7-0.2-2.5c1.1-0.4,1.9-1.5,1.9-2.8v0C1592.6,996.7,1592.3,994.9,1591.8,993.3z M1589.9,993.9
		c0.5,1.4,0.7,3,0.7,4.5v0c0,0.5-0.4,0.9-0.9,1c-0.4-0.5-0.8-0.9-1.3-1.2c0-2.2-0.7-4.3-1.9-6h1
		C1588.7,992.3,1589.6,992.9,1589.9,993.9z M1585.4,977.2c1.2,0,2.2,1,2.2,2.2c0,0.8-0.4,1.5-1,1.9c-0.8-1.2-1.9-2.2-3.2-2.9
		C1583.8,977.7,1584.5,977.2,1585.4,977.2z M1586.2,986.4c0,3.6-2.7,6.6-6.2,7.1v-1.3c1.1-0.4,1.9-1.5,1.9-2.7
		c0-1.6-1.3-2.9-2.9-2.9c-1.6,0-2.9,1.3-2.9,2.9c0,1.3,0.8,2.3,1.9,2.7v1.3c-3.5-0.5-6.2-3.5-6.2-7.1c0-3.9,3.2-7.1,7.1-7.1
		S1586.2,982.5,1586.2,986.4z M1578.1,989.5c0-0.5,0.4-0.9,0.9-0.9s0.9,0.4,0.9,0.9c0,0.5-0.4,0.9-0.9,0.9S1578.1,990,1578.1,989.5z
		 M1570.5,979.4c0-1.2,1-2.2,2.2-2.2c0.9,0,1.6,0.5,2,1.2c-1.3,0.7-2.4,1.7-3.2,2.9C1570.9,980.9,1570.5,980.2,1570.5,979.4z
		 M1567.5,998.5c0-1.6,0.2-3.1,0.7-4.5c0.3-1,1.2-1.6,2.3-1.6h1c-1.1,1.7-1.8,3.7-1.9,6c-0.5,0.3-0.9,0.7-1.3,1.2
		C1567.9,999.4,1567.5,999,1567.5,998.5L1567.5,998.5z M1572.3,1006.8c-1.5,0.2-2.9-1.3-3.1-3.2c-0.1-1,0.1-1.9,0.6-2.7
		c0.4-0.7,1.1-1.1,1.7-1.2c0.7-0.1,1.4,0.2,2,0.8c0.6,0.6,1,1.5,1.1,2.5C1574.8,1004.9,1573.8,1006.6,1572.3,1006.8z M1576,1006
		c0.5-1,0.7-2.1,0.5-3.3c-0.2-1.4-0.8-2.7-1.7-3.7c-0.9-0.9-2-1.4-3.2-1.3c0.1-1.6,0.7-3.1,1.5-4.3c1.6,1.3,3.6,2.2,5.9,2.2
		c2.2,0,4.3-0.8,5.9-2.2c0.8,1.2,1.4,2.7,1.5,4.3c-1.2,0-2.3,0.4-3.2,1.3c-0.9,0.9-1.6,2.2-1.7,3.7c-0.1,1.2,0.1,2.4,0.5,3.3
		c-0.9,0.5-2,0.7-3.1,0.7S1576.9,1006.5,1576,1006z M1585.9,1006.8c-1.5-0.2-2.5-1.9-2.3-3.8c0.1-1,0.5-1.9,1.1-2.5
		c0.5-0.5,1.1-0.8,1.7-0.8c0.1,0,0.1,0,0.2,0c0.7,0.1,1.3,0.5,1.7,1.2c0.5,0.7,0.7,1.7,0.6,2.7
		C1588.7,1005.5,1587.3,1006.9,1585.9,1006.8z"/>
	<circle id="XMLID_222_" class="st0" cx="1576.4" cy="984.3" r="1.3"/>
	<circle id="XMLID_226_" class="st0" cx="1581.8" cy="984.3" r="1.3"/>
</g>
<g id="XMLID_328_">
	<circle id="XMLID_329_" class="st0" cx="142" cy="7.1" r="0.9"/>
	<polygon id="XMLID_330_" class="st0" points="144,4.5 146.8,7.1 144,9.7 145.2,11 149.3,7.1 145.2,3.3 	"/>
	<path id="XMLID_400_" class="st0" d="M147.7,0H136c-2.8,0-5.1,2.3-5.1,5.1v3.9c0,2.8,2.3,5.1,5.1,5.1h11.7c2.8,0,5.1-2.3,5.1-5.1
		V5.1C152.8,2.3,150.5,0,147.7,0z M151.1,9.1c0,1.9-1.5,3.4-3.4,3.4H136c-1.9,0-3.4-1.5-3.4-3.4V5.1c0-1.9,1.5-3.4,3.4-3.4h11.7
		c1.9,0,3.4,1.5,3.4,3.4V9.1z"/>
	<circle id="XMLID_401_" class="st0" cx="135.2" cy="7.1" r="0.9"/>
	<circle id="XMLID_402_" class="st0" cx="138.6" cy="7.1" r="0.9"/>
	<path id="XMLID_403_" class="st0" d="M4.4,3.9C4.2,3.9,4,4,3.9,4.1S3.6,4.4,3.6,4.6V7H1.4V4.6c0-0.2-0.1-0.3-0.2-0.5
		C1.1,4,0.9,3.9,0.7,3.9S0.4,4,0.2,4.1C0.1,4.2,0,4.4,0,4.6v6.1c0,0.2,0.1,0.3,0.2,0.5c0.1,0.1,0.3,0.2,0.5,0.2s0.4-0.1,0.5-0.2
		c0.1-0.1,0.2-0.3,0.2-0.5V8.3h2.2v2.4c0,0.2,0.1,0.3,0.2,0.5c0.1,0.1,0.3,0.2,0.5,0.2c0.2,0,0.4-0.1,0.5-0.2
		C5,11,5.1,10.9,5.1,10.7V4.6c0-0.2-0.1-0.3-0.2-0.5S4.6,3.9,4.4,3.9z"/>
	<path id="XMLID_406_" class="st0" d="M11.7,10.5l-2-5.9C9.6,4.4,9.5,4.2,9.4,4.1C9.3,4,9.1,3.9,8.8,3.9S8.4,4,8.3,4.1
		C8.2,4.2,8.1,4.4,8,4.6l-2,5.9c0,0,0,0.1,0,0.1c0,0,0,0.1,0,0.1c0,0.2,0.1,0.4,0.2,0.5s0.3,0.2,0.5,0.2c0.1,0,0.3,0,0.4-0.1
		c0.1-0.1,0.2-0.2,0.3-0.4l0.3-1h2.2l0.4,1c0.1,0.1,0.2,0.3,0.3,0.4c0.1,0.1,0.3,0.1,0.4,0.1c0.2,0,0.4-0.1,0.5-0.2s0.2-0.3,0.2-0.5
		c0,0,0-0.1,0-0.1C11.7,10.5,11.7,10.5,11.7,10.5z M8.1,8.7l0.5-1.8c0-0.2,0.1-0.3,0.1-0.5c0-0.2,0.1-0.4,0.1-0.5
		c0,0.2,0,0.3,0.1,0.5C8.9,6.6,9,6.7,9,6.9l0.5,1.8H8.1z"/>
	<path id="XMLID_407_" class="st0" d="M16.7,9.9h-2.4l2.9-4.8c0-0.1,0.1-0.1,0.1-0.2c0-0.1,0-0.2,0-0.3c0-0.2-0.1-0.4-0.2-0.5
		C17,4.1,16.9,4,16.6,4h-3.5c-0.2,0-0.4,0.1-0.5,0.2c-0.1,0.1-0.2,0.3-0.2,0.5c0,0.2,0.1,0.3,0.2,0.5c0.1,0.1,0.3,0.2,0.5,0.2h2.3
		c-0.3,0.4-0.5,0.8-0.7,1.2S14.2,7.3,14,7.7c-0.2,0.4-0.5,0.8-0.7,1.2c-0.2,0.4-0.5,0.8-0.7,1.2c0,0.1-0.1,0.1-0.1,0.2
		c0,0.1-0.1,0.2-0.1,0.2c0,0.2,0.1,0.4,0.2,0.5c0.1,0.1,0.3,0.2,0.5,0.2h3.5c0.2,0,0.4-0.1,0.5-0.2c0.1-0.1,0.2-0.3,0.2-0.5
		c0-0.2-0.1-0.3-0.2-0.5C17,10,16.9,9.9,16.7,9.9z"/>
	<path id="XMLID_408_" class="st0" d="M25.1,7.6c-0.2-0.2-0.4-0.3-0.7-0.4S24,7,23.7,7c-0.1,0-0.2-0.1-0.4-0.1
		c-0.1,0-0.3-0.1-0.4-0.2c-0.1,0-0.2-0.1-0.3-0.2S22.5,6.2,22.5,6c0-0.2,0-0.3,0.1-0.4s0.1-0.2,0.2-0.2c0.1-0.1,0.2-0.1,0.3-0.1
		c0.1,0,0.2,0,0.4,0c0.2,0,0.3,0,0.5,0.1c0.1,0,0.2,0.1,0.3,0.1c0.1,0,0.2,0.1,0.2,0.1c0.1,0,0.2,0,0.3,0c0.2,0,0.4-0.1,0.5-0.2
		c0.1-0.1,0.2-0.3,0.2-0.5c0-0.2-0.1-0.3-0.2-0.5c-0.2-0.1-0.3-0.2-0.6-0.3C24.5,4,24.3,4,24,3.9c-0.2,0-0.4,0-0.6,0
		c-0.4,0-0.7,0-1,0.1c-0.3,0.1-0.5,0.2-0.8,0.4s-0.4,0.4-0.5,0.7C21.1,5.4,21,5.7,21,6c0,0.4,0.1,0.7,0.2,0.9s0.3,0.4,0.5,0.6
		c0.2,0.2,0.4,0.3,0.7,0.4c0.3,0.1,0.5,0.2,0.8,0.3c0.1,0,0.3,0.1,0.4,0.1c0.1,0,0.2,0.1,0.4,0.1c0.1,0,0.2,0.1,0.3,0.2
		s0.1,0.3,0.1,0.5c0,0.3-0.1,0.5-0.3,0.7s-0.4,0.2-0.8,0.2c-0.2,0-0.4,0-0.6-0.1c-0.2,0-0.3-0.1-0.4-0.1c-0.1,0-0.2-0.1-0.3-0.1
		s-0.2,0-0.2,0c-0.2,0-0.4,0.1-0.5,0.2c-0.1,0.1-0.2,0.3-0.2,0.5c0,0.2,0.1,0.3,0.2,0.5c0.2,0.1,0.4,0.2,0.6,0.3s0.5,0.1,0.7,0.2
		c0.3,0,0.5,0.1,0.7,0.1c0.4,0,0.7,0,1-0.1c0.3-0.1,0.6-0.2,0.8-0.4c0.2-0.2,0.4-0.4,0.5-0.7s0.2-0.6,0.2-1c0-0.4-0.1-0.7-0.2-0.9
		C25.5,8,25.3,7.8,25.1,7.6z"/>
	<path id="XMLID_409_" class="st0" d="M28.1,6c0-0.2,0.1-0.3,0.2-0.5c0.1-0.1,0.2-0.2,0.4-0.3c0.2-0.1,0.4-0.1,0.6-0.1
		c0.2,0,0.3,0,0.5,0.1c0.1,0,0.3,0.1,0.4,0.2l0.1,0.1c0.1,0,0.1,0.1,0.2,0.1c0.1,0,0.1,0,0.3,0c0.2,0,0.4-0.1,0.5-0.2
		c0.1-0.1,0.2-0.3,0.2-0.4c0-0.2-0.1-0.3-0.2-0.4c-0.1-0.1-0.3-0.3-0.5-0.4C30.5,4.1,30.3,4,30.1,4c-0.3-0.1-0.5-0.1-0.8-0.1
		c-0.5,0-0.8,0.1-1.2,0.2c-0.3,0.1-0.6,0.3-0.8,0.5c-0.2,0.2-0.4,0.5-0.5,0.9s-0.2,0.7-0.2,1.1v2c0,0.4,0.1,0.8,0.2,1.1
		s0.3,0.6,0.5,0.9c0.2,0.2,0.5,0.4,0.8,0.5c0.3,0.1,0.7,0.2,1.2,0.2c0.3,0,0.5,0,0.8-0.1c0.3-0.1,0.5-0.1,0.7-0.2
		c0.2-0.1,0.4-0.2,0.5-0.4c0.1-0.1,0.2-0.3,0.2-0.4c0-0.2-0.1-0.3-0.2-0.4c-0.1-0.1-0.3-0.2-0.5-0.2c-0.1,0-0.2,0-0.3,0
		c-0.1,0-0.1,0.1-0.2,0.1l-0.1,0.1C30,9.9,29.9,10,29.8,10c-0.1,0-0.3,0.1-0.5,0.1c-0.2,0-0.4,0-0.6-0.1c-0.2-0.1-0.3-0.2-0.4-0.3
		c-0.1-0.1-0.2-0.3-0.2-0.5c0-0.2-0.1-0.4-0.1-0.6v-2C28.1,6.4,28.1,6.2,28.1,6z"/>
	<path id="XMLID_412_" class="st0" d="M36,8.2c0.4-0.1,0.8-0.4,1.1-0.7c0.3-0.3,0.4-0.8,0.4-1.3c0-0.3,0-0.5-0.1-0.8
		c-0.1-0.3-0.2-0.5-0.4-0.7c-0.2-0.2-0.5-0.4-0.8-0.5C35.8,4.1,35.4,4,34.9,4h-1.8c-0.1,0-0.2,0-0.3,0.1c-0.1,0-0.2,0.1-0.3,0.2
		s-0.1,0.1-0.2,0.2c0,0.1-0.1,0.2-0.1,0.3v6c0,0.2,0.1,0.3,0.2,0.5c0.1,0.1,0.3,0.2,0.5,0.2c0.1,0,0.2,0,0.3-0.1
		c0.1,0,0.2-0.1,0.2-0.1c0.1-0.1,0.1-0.1,0.2-0.2c0-0.1,0.1-0.2,0.1-0.3V8.3h0.7l1.7,2.7c0.1,0.2,0.3,0.3,0.6,0.3
		c0.1,0,0.2,0,0.3-0.1c0.1-0.1,0.2-0.1,0.3-0.2s0.1-0.2,0.1-0.3c0-0.1,0-0.3-0.1-0.4L36,8.2z M35.7,6.8C35.5,6.9,35.3,7,34.9,7h-1.2
		V5.3h1.1c0.2,0,0.4,0,0.6,0.1c0.2,0.1,0.3,0.1,0.4,0.2c0.1,0.1,0.1,0.2,0.2,0.3c0,0.1,0,0.2,0,0.3C36,6.4,35.9,6.7,35.7,6.8z"/>
	<path id="XMLID_415_" class="st0" d="M43.2,4.7c-0.2-0.2-0.5-0.4-0.8-0.6s-0.8-0.2-1.2-0.2c-0.5,0-0.9,0.1-1.2,0.2
		c-0.3,0.1-0.6,0.3-0.8,0.6s-0.4,0.5-0.5,0.9c-0.1,0.3-0.2,0.7-0.2,1v2c0,0.4,0.1,0.7,0.2,1.1c0.1,0.3,0.3,0.6,0.5,0.9
		s0.5,0.4,0.8,0.6c0.3,0.1,0.7,0.2,1.2,0.2c0.4,0,0.8-0.1,1.2-0.2c0.3-0.1,0.6-0.3,0.8-0.6c0.2-0.2,0.4-0.5,0.5-0.9
		c0.1-0.3,0.2-0.7,0.2-1.1v-2c0-0.4-0.1-0.7-0.2-1S43.4,5,43.2,4.7z M42.3,8.6c0,0.4-0.1,0.8-0.3,1c-0.2,0.3-0.5,0.4-0.9,0.4
		s-0.7-0.1-0.9-0.4s-0.3-0.6-0.3-1v-2c0-0.4,0.1-0.8,0.3-1s0.5-0.4,1-0.4s0.8,0.1,1,0.4c0.2,0.3,0.3,0.6,0.3,1V8.6z"/>
	<path id="XMLID_416_" class="st0" d="M48.6,10h-2.2V4.6c0-0.2-0.1-0.3-0.2-0.5C46,4,45.8,3.9,45.6,3.9c-0.2,0-0.4,0.1-0.5,0.2
		s-0.2,0.3-0.2,0.5v6c0,0.2,0.1,0.4,0.2,0.5c0.2,0.1,0.3,0.2,0.5,0.2h2.9c0.2,0,0.4-0.1,0.5-0.2c0.1-0.1,0.2-0.3,0.2-0.5
		c0-0.2-0.1-0.3-0.2-0.5C48.9,10,48.8,10,48.6,10z"/>
	<path id="XMLID_417_" class="st0" d="M53.8,10h-2.2V4.6c0-0.2-0.1-0.3-0.2-0.5C51.2,4,51,3.9,50.8,3.9c-0.2,0-0.4,0.1-0.5,0.2
		s-0.2,0.3-0.2,0.5v6c0,0.2,0.1,0.4,0.2,0.5c0.2,0.1,0.3,0.2,0.5,0.2h2.9c0.2,0,0.4-0.1,0.5-0.2c0.1-0.1,0.2-0.3,0.2-0.5
		c0-0.2-0.1-0.3-0.2-0.5C54.1,10,54,10,53.8,10z"/>
	<path id="XMLID_420_" class="st0" d="M62.8,4.7c-0.2-0.2-0.5-0.4-0.8-0.5C61.6,4.1,61.2,4,60.7,4h-1.5c-0.1,0-0.2,0-0.3,0.1
		s-0.2,0.1-0.3,0.2s-0.1,0.1-0.2,0.2s-0.1,0.2-0.1,0.3v6c0,0.2,0.1,0.3,0.2,0.5c0.1,0.1,0.3,0.2,0.5,0.2c0.2,0,0.4-0.1,0.5-0.2
		c0.1-0.1,0.2-0.3,0.2-0.5V8.8h0.9c0.4,0,0.8-0.1,1.1-0.2c0.3-0.1,0.6-0.3,0.8-0.5c0.2-0.2,0.4-0.4,0.5-0.7c0.1-0.3,0.2-0.6,0.2-1
		c0-0.3,0-0.6-0.1-0.9S63,5,62.8,4.7z M61.6,7.2c-0.2,0.2-0.5,0.3-0.9,0.3h-0.9V5.3h0.9c0.2,0,0.4,0,0.6,0.1
		c0.2,0.1,0.3,0.2,0.4,0.3c0.1,0.1,0.1,0.2,0.2,0.4c0,0.1,0.1,0.3,0.1,0.4C61.9,6.8,61.8,7,61.6,7.2z"/>
	<path id="XMLID_423_" class="st0" d="M69.1,10.5l-2-5.9c-0.1-0.2-0.2-0.4-0.3-0.5c-0.1-0.1-0.3-0.2-0.6-0.2S65.8,4,65.7,4.1
		c-0.1,0.1-0.2,0.3-0.3,0.5l-2,5.9c0,0,0,0.1,0,0.1c0,0,0,0.1,0,0.1c0,0.2,0.1,0.4,0.2,0.5s0.3,0.2,0.5,0.2c0.1,0,0.3,0,0.4-0.1
		s0.2-0.2,0.3-0.4l0.3-1h2.2l0.4,1c0.1,0.1,0.2,0.3,0.3,0.4c0.1,0.1,0.3,0.1,0.4,0.1c0.2,0,0.4-0.1,0.5-0.2c0.1-0.1,0.2-0.3,0.2-0.5
		c0,0,0-0.1,0-0.1C69.2,10.5,69.2,10.5,69.1,10.5z M65.5,8.7l0.5-1.8c0-0.2,0.1-0.3,0.1-0.5c0-0.2,0.1-0.4,0.1-0.5
		c0,0.2,0,0.3,0.1,0.5c0,0.2,0.1,0.3,0.1,0.5L67,8.7H65.5z"/>
	<path id="XMLID_426_" class="st0" d="M73.7,8.2c0.4-0.1,0.8-0.4,1.1-0.7c0.3-0.3,0.4-0.8,0.4-1.3c0-0.3,0-0.5-0.1-0.8
		s-0.2-0.5-0.4-0.7c-0.2-0.2-0.5-0.4-0.8-0.5C73.5,4.1,73.1,4,72.6,4h-1.8c-0.1,0-0.2,0-0.3,0.1c-0.1,0-0.2,0.1-0.3,0.2
		c-0.1,0.1-0.1,0.1-0.2,0.2S70,4.6,70,4.7v6c0,0.2,0.1,0.3,0.2,0.5c0.1,0.1,0.3,0.2,0.5,0.2c0.1,0,0.2,0,0.3-0.1s0.2-0.1,0.2-0.1
		c0.1-0.1,0.1-0.1,0.2-0.2c0-0.1,0.1-0.2,0.1-0.3V8.3h0.7l1.7,2.7c0.1,0.2,0.3,0.3,0.6,0.3c0.1,0,0.2,0,0.3-0.1
		c0.1-0.1,0.2-0.1,0.3-0.2s0.1-0.2,0.1-0.3c0-0.1,0-0.3-0.1-0.4L73.7,8.2z M73.4,6.8C73.3,6.9,73,7,72.6,7h-1.2V5.3h1.1
		c0.2,0,0.4,0,0.6,0.1c0.2,0.1,0.3,0.1,0.4,0.2c0.1,0.1,0.1,0.2,0.2,0.3c0,0.1,0,0.2,0,0.3C73.7,6.4,73.6,6.7,73.4,6.8z"/>
	<path id="XMLID_429_" class="st0" d="M81.8,10.5l-2-5.9c-0.1-0.2-0.2-0.4-0.3-0.5c-0.1-0.1-0.3-0.2-0.6-0.2S78.5,4,78.4,4.1
		c-0.1,0.1-0.2,0.3-0.3,0.5l-2,5.9c0,0,0,0.1,0,0.1c0,0,0,0.1,0,0.1c0,0.2,0.1,0.4,0.2,0.5s0.3,0.2,0.5,0.2c0.1,0,0.3,0,0.4-0.1
		s0.2-0.2,0.3-0.4l0.3-1H80l0.4,1c0.1,0.1,0.2,0.3,0.3,0.4c0.1,0.1,0.3,0.1,0.4,0.1c0.2,0,0.4-0.1,0.5-0.2c0.1-0.1,0.2-0.3,0.2-0.5
		c0,0,0-0.1,0-0.1C81.8,10.5,81.8,10.5,81.8,10.5z M78.2,8.7l0.5-1.8c0-0.2,0.1-0.3,0.1-0.5s0.1-0.4,0.1-0.5C79,6,79,6.2,79,6.4
		c0,0.2,0.1,0.3,0.1,0.5l0.5,1.8H78.2z"/>
	<path id="XMLID_430_" class="st0" d="M90.2,3.9c-0.1,0-0.3,0-0.4,0.1c-0.1,0.1-0.2,0.2-0.3,0.4l-1.3,4c0,0.2-0.1,0.3-0.1,0.5
		c0,0.2-0.1,0.4-0.1,0.5c0-0.2,0-0.3-0.1-0.5c0-0.2-0.1-0.3-0.1-0.5l-1.3-4c-0.1-0.2-0.2-0.3-0.3-0.4c-0.1-0.1-0.3-0.1-0.4-0.1
		c-0.2,0-0.4,0.1-0.5,0.2c-0.1,0.1-0.2,0.3-0.2,0.5c0,0,0,0.1,0,0.1c0,0,0,0.1,0,0.1l2,5.9c0.1,0.2,0.2,0.4,0.3,0.5
		c0.1,0.1,0.3,0.2,0.6,0.2s0.4-0.1,0.6-0.2c0.1-0.1,0.2-0.3,0.3-0.5l2-5.9c0,0,0-0.1,0-0.1c0,0,0-0.1,0-0.1c0-0.2-0.1-0.4-0.2-0.5
		C90.6,4,90.4,3.9,90.2,3.9z"/>
	<path id="XMLID_431_" class="st0" d="M95.5,10h-2.3V8.3h2c0.2,0,0.4-0.1,0.5-0.2c0.1-0.1,0.2-0.3,0.2-0.5c0-0.2-0.1-0.3-0.2-0.5
		C95.6,7,95.4,7,95.2,7h-2V5.3h2.1c0.2,0,0.4-0.1,0.5-0.2c0.1-0.1,0.2-0.3,0.2-0.5c0-0.2-0.1-0.3-0.2-0.5C95.8,4.1,95.6,4,95.4,4
		h-2.8c-0.1,0-0.2,0-0.3,0.1s-0.2,0.1-0.2,0.2c-0.1,0.1-0.1,0.1-0.2,0.2c0,0.1-0.1,0.2-0.1,0.3v5.8c0,0.1,0,0.3,0.1,0.4
		c0.1,0.1,0.1,0.2,0.2,0.2c0.1,0.1,0.2,0.1,0.3,0.1s0.2,0,0.4,0h2.7c0.2,0,0.4-0.1,0.5-0.2c0.1-0.1,0.2-0.3,0.2-0.5
		c0-0.2-0.1-0.3-0.2-0.5C95.9,10,95.7,10,95.5,10z"/>
	<path id="XMLID_434_" class="st0" d="M100.8,8.2c0.4-0.1,0.8-0.4,1.1-0.7c0.3-0.3,0.4-0.8,0.4-1.3c0-0.3,0-0.5-0.1-0.8
		s-0.2-0.5-0.4-0.7c-0.2-0.2-0.5-0.4-0.8-0.5c-0.3-0.1-0.7-0.2-1.2-0.2h-1.8c-0.1,0-0.2,0-0.3,0.1c-0.1,0-0.2,0.1-0.3,0.2
		c-0.1,0.1-0.1,0.1-0.2,0.2s-0.1,0.2-0.1,0.3v6c0,0.2,0.1,0.3,0.2,0.5c0.1,0.1,0.3,0.2,0.5,0.2c0.1,0,0.2,0,0.3-0.1s0.2-0.1,0.2-0.1
		c0.1-0.1,0.1-0.1,0.2-0.2c0-0.1,0.1-0.2,0.1-0.3V8.3h0.7L101,11c0.1,0.2,0.3,0.3,0.6,0.3c0.1,0,0.2,0,0.3-0.1
		c0.1-0.1,0.2-0.1,0.3-0.2s0.1-0.2,0.1-0.3c0-0.1,0-0.3-0.1-0.4L100.8,8.2z M100.6,6.8c-0.2,0.1-0.5,0.2-0.8,0.2h-1.2V5.3h1.1
		c0.2,0,0.4,0,0.6,0.1c0.2,0.1,0.3,0.1,0.4,0.2c0.1,0.1,0.1,0.2,0.2,0.3c0,0.1,0,0.2,0,0.3C100.8,6.4,100.7,6.7,100.6,6.8z"/>
	<path id="XMLID_435_" class="st0" d="M112.4,3.9c-0.1,0-0.3,0-0.4,0.1c-0.1,0.1-0.2,0.2-0.3,0.3l-1.8,3.7L108,4.3
		c-0.1-0.3-0.4-0.4-0.7-0.4c-0.2,0-0.4,0.1-0.5,0.2c-0.1,0.1-0.2,0.3-0.2,0.5v6.1c0,0.2,0.1,0.3,0.2,0.5c0.1,0.1,0.3,0.2,0.5,0.2
		c0.2,0,0.4-0.1,0.5-0.2c0.1-0.1,0.2-0.3,0.2-0.5V7.2l1.2,2.3c0.1,0.1,0.2,0.2,0.3,0.3c0.1,0.1,0.3,0.1,0.4,0.1c0.1,0,0.3,0,0.4-0.1
		c0.1-0.1,0.2-0.2,0.3-0.3l1.2-2.3v3.6c0,0.2,0.1,0.3,0.2,0.5c0.1,0.1,0.3,0.2,0.5,0.2c0.2,0,0.4-0.1,0.5-0.2
		c0.1-0.1,0.2-0.3,0.2-0.5V4.6c0-0.2-0.1-0.3-0.2-0.5C112.8,4,112.6,3.9,112.4,3.9z"/>
	<path id="XMLID_436_" class="st0" d="M116.9,3.5c0.1,0,0.2,0,0.3-0.1s0.1-0.1,0.2-0.2l0.8-0.8c0-0.1,0.1-0.1,0.1-0.2s0-0.1,0-0.1
		c0-0.1-0.1-0.3-0.2-0.4s-0.2-0.1-0.3-0.1s-0.2,0-0.3,0.1s-0.1,0.1-0.2,0.1l-0.1,0.1l-0.8,0.8c-0.1,0.1-0.1,0.2-0.1,0.3
		c0,0.2,0.1,0.3,0.2,0.4C116.6,3.4,116.7,3.5,116.9,3.5z"/>
	<path id="XMLID_439_" class="st0" d="M119.8,10.5l-2-5.9c-0.1-0.2-0.2-0.4-0.3-0.5c-0.1-0.1-0.3-0.2-0.6-0.2s-0.4,0.1-0.6,0.2
		c-0.1,0.1-0.2,0.3-0.3,0.5l-2,5.9c0,0,0,0.1,0,0.1c0,0,0,0.1,0,0.1c0,0.2,0.1,0.4,0.2,0.5s0.3,0.2,0.5,0.2c0.1,0,0.3,0,0.4-0.1
		s0.2-0.2,0.3-0.4l0.3-1h2.2l0.4,1c0.1,0.1,0.2,0.3,0.3,0.4c0.1,0.1,0.3,0.1,0.4,0.1c0.2,0,0.4-0.1,0.5-0.2c0.1-0.1,0.2-0.3,0.2-0.5
		c0,0,0-0.1,0-0.1C119.8,10.5,119.8,10.5,119.8,10.5z M116.2,8.7l0.5-1.8c0-0.2,0.1-0.3,0.1-0.5s0.1-0.4,0.1-0.5
		c0,0.2,0,0.3,0.1,0.5c0,0.2,0.1,0.3,0.1,0.5l0.5,1.8H116.2z"/>
	<path id="XMLID_440_" class="st0" d="M124.6,7.6c-0.2-0.2-0.4-0.3-0.7-0.4S123.4,7,123.2,7c-0.1,0-0.2-0.1-0.4-0.1
		c-0.1,0-0.3-0.1-0.4-0.2c-0.1,0-0.2-0.1-0.3-0.2S122,6.2,122,6c0-0.2,0-0.3,0.1-0.4s0.1-0.2,0.2-0.2c0.1-0.1,0.2-0.1,0.3-0.1
		c0.1,0,0.2,0,0.4,0c0.2,0,0.3,0,0.5,0.1c0.1,0,0.2,0.1,0.3,0.1c0.1,0,0.2,0.1,0.2,0.1c0.1,0,0.2,0,0.3,0c0.2,0,0.4-0.1,0.5-0.2
		c0.1-0.1,0.2-0.3,0.2-0.5c0-0.2-0.1-0.3-0.2-0.5s-0.3-0.2-0.6-0.3c-0.2-0.1-0.5-0.1-0.7-0.1c-0.2,0-0.4,0-0.6,0c-0.4,0-0.7,0-1,0.1
		c-0.3,0.1-0.5,0.2-0.8,0.4s-0.4,0.4-0.5,0.7c-0.1,0.3-0.2,0.6-0.2,0.9c0,0.4,0.1,0.7,0.2,0.9s0.3,0.4,0.5,0.6
		c0.2,0.2,0.4,0.3,0.7,0.4c0.3,0.1,0.5,0.2,0.8,0.3c0.1,0,0.3,0.1,0.4,0.1c0.1,0,0.2,0.1,0.4,0.1c0.1,0,0.2,0.1,0.3,0.2
		s0.1,0.3,0.1,0.5c0,0.3-0.1,0.5-0.3,0.7c-0.2,0.2-0.4,0.2-0.8,0.2c-0.2,0-0.4,0-0.6-0.1c-0.2,0-0.3-0.1-0.4-0.1
		c-0.1,0-0.2-0.1-0.3-0.1s-0.2,0-0.2,0c-0.2,0-0.4,0.1-0.5,0.2c-0.1,0.1-0.2,0.3-0.2,0.5c0,0.2,0.1,0.3,0.2,0.5
		c0.2,0.1,0.4,0.2,0.6,0.3s0.5,0.1,0.7,0.2c0.3,0,0.5,0.1,0.7,0.1c0.4,0,0.7,0,1-0.1s0.6-0.2,0.8-0.4c0.2-0.2,0.4-0.4,0.5-0.7
		s0.2-0.6,0.2-1c0-0.4-0.1-0.7-0.2-0.9C125,8,124.8,7.8,124.6,7.6z"/>
</g>
<g id="XMLID_350_">
</g>
<g id="XMLID_351_">
</g>
<g id="XMLID_352_">
</g>
<g id="XMLID_358_">
</g>
<g id="XMLID_359_">
</g>
<g id="XMLID_360_">
</g>
</svg>
