<?xml version="1.0" encoding="utf-8"?>
<!-- Generator: Adobe Illustrator 19.0.0, SVG Export Plug-In . SVG Version: 6.00 Build 0)  -->
<svg version="1.1" id="Capa_1" xmlns="http://www.w3.org/2000/svg" xmlns:xlink="http://www.w3.org/1999/xlink" x="0px" y="0px"
	 viewBox="0 0 238.3 196.8" style="enable-background:new 0 0 238.3 196.8;" xml:space="preserve">
<style type="text/css">
	.st0{opacity:0.15;fill:#1D1D1B;}
	.st1{opacity:0.15;}
	.st2{fill:#1D1D1B;}
</style>
<path id="XMLID_277_" class="st0" d="M34.1,12.3c-3.4,0.1-6.2-2.6-6.2-6c-0.1-3.4,2.6-6.2,6-6.2c3.4-0.1,6.2,2.6,6.2,6
	C40.1,9.4,37.4,12.2,34.1,12.3z M33.9,2.8c-1.8,0-3.3,1.5-3.2,3.3c0,1.8,1.5,3.3,3.3,3.2c1.8,0,3.3-1.5,3.2-3.3
	C37.2,4.3,35.7,2.8,33.9,2.8z"/>
<g id="XMLID_275_" class="st1">
	<path id="XMLID_273_" class="st2" d="M0.9,60.5L0.9,60.5c-0.5,0-0.9-0.4-0.9-0.9v-4.1c0-0.5,0.4-0.9,0.9-0.9h3.2
		c0.5,0,0.9-0.4,0.9-0.9v-3.2c0-0.5,0.4-0.9,0.9-0.9h3.2c0.5,0,0.9-0.4,0.9-0.9v-3.2c0-0.5,0.4-0.9,0.9-0.9h3.2
		c0.5,0,0.9-0.4,0.9-0.9v-3.2c0-0.5,0.4-0.9,0.9-0.9h3.2c0.5,0,0.9-0.4,0.9-0.9v-3.2c0-0.5,0.4-0.9,0.9-0.9h4.1
		c0.5,0,0.9,0.4,0.9,0.9l0,0c0,0.5-0.4,0.9-0.9,0.9h-2.3c-0.5,0-0.9,0.4-0.9,0.9v3.2c0,0.5-0.4,0.9-0.9,0.9h-3.2
		c-0.5,0-0.9,0.4-0.9,0.9v3.2c0,0.5-0.4,0.9-0.9,0.9h-3.2c-0.5,0-0.9,0.4-0.9,0.9v3.2c0,0.5-0.4,0.9-0.9,0.9H7.7
		c-0.5,0-0.9,0.4-0.9,0.9v3.2c0,0.5-0.4,0.9-0.9,0.9H2.7c-0.5,0-0.9,0.4-0.9,0.9v2.3C1.8,60.1,1.4,60.5,0.9,60.5z"/>
</g>
<path id="XMLID_279_" class="st0" d="M75.9,68.8c-3.4,0.1-6.2-2.6-6.2-6c-0.1-3.4,2.6-6.2,6-6.2c3.4-0.1,6.2,2.6,6.2,6
	C82,66,79.3,68.8,75.9,68.8z M75.8,59.4c-1.8,0-3.3,1.5-3.2,3.3c0,1.8,1.5,3.3,3.3,3.2c1.8,0,3.3-1.5,3.2-3.3
	C79.1,60.8,77.6,59.4,75.8,59.4z"/>
<g id="XMLID_276_" class="st1">
	<path id="XMLID_278_" class="st2" d="M143,86.6L143,86.6c-0.5,0-0.9-0.4-0.9-0.9v-4.1c0-0.5,0.4-0.9,0.9-0.9h3.2
		c0.5,0,0.9-0.4,0.9-0.9v-3.2c0-0.5,0.4-0.9,0.9-0.9h3.2c0.5,0,0.9-0.4,0.9-0.9v-3.2c0-0.5,0.4-0.9,0.9-0.9h3.2
		c0.5,0,0.9-0.4,0.9-0.9v-3.2c0-0.5,0.4-0.9,0.9-0.9h3.2c0.5,0,0.9-0.4,0.9-0.9v-3.2c0-0.5,0.4-0.9,0.9-0.9h4.1
		c0.5,0,0.9,0.4,0.9,0.9l0,0c0,0.5-0.4,0.9-0.9,0.9h-2.3c-0.5,0-0.9,0.4-0.9,0.9v3.2c0,0.5-0.4,0.9-0.9,0.9h-3.2
		c-0.5,0-0.9,0.4-0.9,0.9v3.2c0,0.5-0.4,0.9-0.9,0.9h-3.2c-0.5,0-0.9,0.4-0.9,0.9v3.2c0,0.5-0.4,0.9-0.9,0.9h-3.2
		c-0.5,0-0.9,0.4-0.9,0.9v3.2c0,0.5-0.4,0.9-0.9,0.9h-3.2c-0.5,0-0.9,0.4-0.9,0.9v2.3C143.9,86.2,143.5,86.6,143,86.6z"/>
</g>
<path id="XMLID_320_" class="st0" d="M34.1,113.3c-3.4,0.1-6.2-2.6-6.2-6c-0.1-3.4,2.6-6.2,6-6.2c3.4-0.1,6.2,2.6,6.2,6
	C40.1,110.4,37.4,113.2,34.1,113.3z M33.9,103.8c-1.8,0-3.3,1.5-3.2,3.3c0,1.8,1.5,3.3,3.3,3.2c1.8,0,3.3-1.5,3.2-3.3
	C37.2,105.3,35.7,103.8,33.9,103.8z"/>
<g id="XMLID_318_" class="st1">
	<path id="XMLID_319_" class="st2" d="M20.9,161.5L20.9,161.5c-0.5,0-0.9-0.4-0.9-0.9v-4.1c0-0.5,0.4-0.9,0.9-0.9h3.2
		c0.5,0,0.9-0.4,0.9-0.9v-3.2c0-0.5,0.4-0.9,0.9-0.9h3.2c0.5,0,0.9-0.4,0.9-0.9v-3.2c0-0.5,0.4-0.9,0.9-0.9h3.2
		c0.5,0,0.9-0.4,0.9-0.9v-3.2c0-0.5,0.4-0.9,0.9-0.9h3.2c0.5,0,0.9-0.4,0.9-0.9v-3.2c0-0.5,0.4-0.9,0.9-0.9h4.1
		c0.5,0,0.9,0.4,0.9,0.9l0,0c0,0.5-0.4,0.9-0.9,0.9h-2.3c-0.5,0-0.9,0.4-0.9,0.9v3.2c0,0.5-0.4,0.9-0.9,0.9h-3.2
		c-0.5,0-0.9,0.4-0.9,0.9v3.2c0,0.5-0.4,0.9-0.9,0.9h-3.2c-0.5,0-0.9,0.4-0.9,0.9v3.2c0,0.5-0.4,0.9-0.9,0.9h-3.2
		c-0.5,0-0.9,0.4-0.9,0.9v3.2c0,0.5-0.4,0.9-0.9,0.9h-3.2c-0.5,0-0.9,0.4-0.9,0.9v2.3C21.8,161.1,21.4,161.5,20.9,161.5z"/>
</g>
<g id="XMLID_312_" class="st1">
	<path id="XMLID_313_" class="st2" d="M143,187.6L143,187.6c-0.5,0-0.9-0.4-0.9-0.9v-4.1c0-0.5,0.4-0.9,0.9-0.9h3.2
		c0.5,0,0.9-0.4,0.9-0.9v-3.2c0-0.5,0.4-0.9,0.9-0.9h3.2c0.5,0,0.9-0.4,0.9-0.9v-3.2c0-0.5,0.4-0.9,0.9-0.9h3.2
		c0.5,0,0.9-0.4,0.9-0.9v-3.2c0-0.5,0.4-0.9,0.9-0.9h3.2c0.5,0,0.9-0.4,0.9-0.9v-3.2c0-0.5,0.4-0.9,0.9-0.9h4.1
		c0.5,0,0.9,0.4,0.9,0.9l0,0c0,0.5-0.4,0.9-0.9,0.9h-2.3c-0.5,0-0.9,0.4-0.9,0.9v3.2c0,0.5-0.4,0.9-0.9,0.9h-3.2
		c-0.5,0-0.9,0.4-0.9,0.9v3.2c0,0.5-0.4,0.9-0.9,0.9h-3.2c-0.5,0-0.9,0.4-0.9,0.9v3.2c0,0.5-0.4,0.9-0.9,0.9h-3.2
		c-0.5,0-0.9,0.4-0.9,0.9v3.2c0,0.5-0.4,0.9-0.9,0.9h-3.2c-0.5,0-0.9,0.4-0.9,0.9v2.3C143.9,187.2,143.5,187.6,143,187.6z"/>
</g>
<path id="XMLID_350_" class="st0" d="M95.9,170.8c-3.4,0.1-6.2-2.6-6.2-6c-0.1-3.4,2.6-6.2,6-6.2c3.4-0.1,6.2,2.6,6.2,6
	C102,168,99.3,170.8,95.9,170.8z M95.8,161.4c-1.8,0-3.3,1.5-3.2,3.3c0,1.8,1.5,3.3,3.3,3.2c1.8,0,3.3-1.5,3.2-3.3
	C99.1,162.8,97.6,161.4,95.8,161.4z"/>
<path id="XMLID_452_" class="st0" d="M24.1,196.8c-3.4,0.1-6.2-2.6-6.2-6c-0.1-3.4,2.6-6.2,6-6.2c3.4-0.1,6.2,2.6,6.2,6
	C30.1,194,27.4,196.8,24.1,196.8z M23.9,187.4c-1.8,0-3.3,1.5-3.2,3.3c0,1.8,1.5,3.3,3.3,3.2c1.8,0,3.3-1.5,3.2-3.3
	C27.2,188.8,25.7,187.4,23.9,187.4z"/>
<g id="XMLID_310_" class="st1">
	<path id="XMLID_311_" class="st2" d="M105.3,20.2c-0.7,0-1.3-0.1-1.9-0.3c-0.6-0.2-1.1-0.5-1.5-0.9s-0.7-0.9-1-1.4
		c-0.2-0.6-0.4-1.2-0.4-1.8v-0.2c0-0.7,0.1-1.3,0.4-1.8c0.2-0.6,0.6-1,1-1.4c0.4-0.4,0.9-0.7,1.5-0.9c0.6-0.2,1.2-0.3,1.9-0.3
		c0.7,0,1.3,0.1,1.9,0.3c0.6,0.2,1.1,0.5,1.5,0.9s0.7,0.9,1,1.4c0.2,0.6,0.4,1.2,0.4,1.8v0.2c0,0.7-0.1,1.3-0.4,1.8
		c-0.2,0.6-0.6,1-1,1.4s-0.9,0.7-1.5,0.9C106.6,20.1,106,20.2,105.3,20.2z M103.9,30.4c0,0-0.2,0-0.4,0c-0.2,0-0.4-0.1-0.6-0.3
		c-0.2-0.1-0.4-0.3-0.6-0.5c-0.2-0.2-0.3-0.4-0.3-0.7s0.1-0.5,0.2-0.7c0.1-0.2,0.3-0.5,0.6-0.8l14.7-16.7c0,0,0.2,0,0.4,0
		s0.4,0.1,0.6,0.2c0.2,0.1,0.4,0.3,0.6,0.5c0.2,0.2,0.3,0.4,0.3,0.7c0,0.2-0.1,0.4-0.2,0.7c-0.1,0.2-0.3,0.5-0.6,0.8L103.9,30.4z
		 M105.3,17.9c0.6,0,1-0.2,1.4-0.6s0.5-0.9,0.5-1.6v-0.4c0-0.7-0.2-1.2-0.6-1.6s-0.8-0.6-1.4-0.6c-0.6,0-1,0.2-1.4,0.6
		c-0.4,0.4-0.5,0.9-0.5,1.6v0.4c0,0.7,0.2,1.2,0.6,1.6C104.3,17.7,104.8,17.9,105.3,17.9z M116.2,30.4c-0.7,0-1.3-0.1-1.9-0.3
		s-1.1-0.5-1.5-0.9s-0.7-0.9-1-1.4c-0.2-0.6-0.4-1.2-0.4-1.8v-0.2c0-0.7,0.1-1.3,0.4-1.8c0.2-0.6,0.6-1,1-1.4
		c0.4-0.4,0.9-0.7,1.5-0.9c0.6-0.2,1.2-0.3,1.9-0.3c0.7,0,1.3,0.1,1.9,0.3c0.6,0.2,1.1,0.5,1.5,0.9s0.7,0.9,1,1.4
		c0.2,0.6,0.4,1.2,0.4,1.8v0.2c0,0.7-0.1,1.3-0.4,1.8c-0.2,0.6-0.6,1-1,1.4s-0.9,0.7-1.5,0.9C117.6,30.3,116.9,30.4,116.2,30.4z
		 M116.3,28.1c0.5,0,1-0.2,1.4-0.6s0.6-0.9,0.6-1.6v-0.4c0-0.7-0.2-1.2-0.6-1.6c-0.4-0.4-0.8-0.6-1.4-0.6c-0.6,0-1,0.2-1.4,0.6
		c-0.4,0.4-0.5,0.9-0.5,1.6V26c0,0.7,0.2,1.2,0.6,1.6C115.2,27.9,115.7,28.1,116.3,28.1z"/>
</g>
<g id="XMLID_303_" class="st1">
	<path id="XMLID_304_" class="st2" d="M198.6,35.2c-0.7,0-1.3-0.1-1.9-0.3c-0.6-0.2-1.1-0.5-1.5-0.9s-0.7-0.9-1-1.4
		c-0.2-0.6-0.4-1.2-0.4-1.8v-0.2c0-0.7,0.1-1.3,0.4-1.8c0.2-0.6,0.6-1,1-1.4c0.4-0.4,0.9-0.7,1.5-0.9c0.6-0.2,1.2-0.3,1.9-0.3
		c0.7,0,1.3,0.1,1.9,0.3c0.6,0.2,1.1,0.5,1.5,0.9s0.7,0.9,1,1.4c0.2,0.6,0.4,1.2,0.4,1.8v0.2c0,0.7-0.1,1.3-0.4,1.8
		c-0.2,0.6-0.6,1-1,1.4s-0.9,0.7-1.5,0.9C199.9,35.1,199.3,35.2,198.6,35.2z M197.2,45.5c0,0-0.2,0-0.4,0c-0.2,0-0.4-0.1-0.6-0.3
		c-0.2-0.1-0.4-0.3-0.6-0.5c-0.2-0.2-0.3-0.4-0.3-0.7s0.1-0.5,0.2-0.7c0.1-0.2,0.3-0.5,0.6-0.8l14.7-16.7c0,0,0.2,0,0.4,0
		s0.4,0.1,0.6,0.2c0.2,0.1,0.4,0.3,0.6,0.5c0.2,0.2,0.3,0.4,0.3,0.7c0,0.2-0.1,0.4-0.2,0.7c-0.1,0.2-0.3,0.5-0.6,0.8L197.2,45.5z
		 M198.6,33c0.6,0,1-0.2,1.4-0.6s0.5-0.9,0.5-1.6v-0.4c0-0.7-0.2-1.2-0.6-1.6s-0.8-0.6-1.4-0.6c-0.6,0-1,0.2-1.4,0.6
		c-0.4,0.4-0.5,0.9-0.5,1.6v0.4c0,0.7,0.2,1.2,0.6,1.6C197.6,32.8,198.1,33,198.6,33z M209.5,45.4c-0.7,0-1.3-0.1-1.9-0.3
		s-1.1-0.5-1.5-0.9s-0.7-0.9-1-1.4c-0.2-0.6-0.4-1.2-0.4-1.8v-0.2c0-0.7,0.1-1.3,0.4-1.8c0.2-0.6,0.6-1,1-1.4
		c0.4-0.4,0.9-0.7,1.5-0.9c0.6-0.2,1.2-0.3,1.9-0.3c0.7,0,1.3,0.1,1.9,0.3c0.6,0.2,1.1,0.5,1.5,0.9s0.7,0.9,1,1.4
		c0.2,0.6,0.4,1.2,0.4,1.8v0.2c0,0.7-0.1,1.3-0.4,1.8c-0.2,0.6-0.6,1-1,1.4s-0.9,0.7-1.5,0.9C210.9,45.3,210.2,45.4,209.5,45.4z
		 M209.6,43.2c0.5,0,1-0.2,1.4-0.6s0.6-0.9,0.6-1.6v-0.4c0-0.7-0.2-1.2-0.6-1.6c-0.4-0.4-0.8-0.6-1.4-0.6c-0.6,0-1,0.2-1.4,0.6
		c-0.4,0.4-0.5,0.9-0.5,1.6V41c0,0.7,0.2,1.2,0.6,1.6C208.5,43,209,43.2,209.6,43.2z"/>
</g>
<g id="XMLID_296_" class="st1">
	<path id="XMLID_297_" class="st2" d="M104.5,119.7c-0.7,0-1.3-0.1-1.9-0.3c-0.6-0.2-1.1-0.5-1.5-0.9s-0.7-0.9-1-1.4
		c-0.2-0.6-0.4-1.2-0.4-1.8V115c0-0.7,0.1-1.3,0.4-1.8c0.2-0.6,0.6-1,1-1.4c0.4-0.4,0.9-0.7,1.5-0.9c0.6-0.2,1.2-0.3,1.9-0.3
		c0.7,0,1.3,0.1,1.9,0.3c0.6,0.2,1.1,0.5,1.5,0.9s0.7,0.9,1,1.4c0.2,0.6,0.4,1.2,0.4,1.8v0.2c0,0.7-0.1,1.3-0.4,1.8
		c-0.2,0.6-0.6,1-1,1.4s-0.9,0.7-1.5,0.9C105.8,119.6,105.2,119.7,104.5,119.7z M103,130c0,0-0.2,0-0.4,0c-0.2,0-0.4-0.1-0.6-0.3
		c-0.2-0.1-0.4-0.3-0.6-0.5c-0.2-0.2-0.3-0.4-0.3-0.7s0.1-0.5,0.2-0.7c0.1-0.2,0.3-0.5,0.6-0.8l14.7-16.7c0,0,0.2,0,0.4,0
		s0.4,0.1,0.6,0.2c0.2,0.1,0.4,0.3,0.6,0.5c0.2,0.2,0.3,0.4,0.3,0.7c0,0.2-0.1,0.4-0.2,0.7c-0.1,0.2-0.3,0.5-0.6,0.8L103,130z
		 M104.5,117.5c0.6,0,1-0.2,1.4-0.6s0.5-0.9,0.5-1.6v-0.4c0-0.7-0.2-1.2-0.6-1.6s-0.8-0.6-1.4-0.6c-0.6,0-1,0.2-1.4,0.6
		c-0.4,0.4-0.5,0.9-0.5,1.6v0.4c0,0.7,0.2,1.2,0.6,1.6C103.4,117.3,103.9,117.5,104.5,117.5z M115.4,129.9c-0.7,0-1.3-0.1-1.9-0.3
		s-1.1-0.5-1.5-0.9s-0.7-0.9-1-1.4c-0.2-0.6-0.4-1.2-0.4-1.8v-0.2c0-0.7,0.1-1.3,0.4-1.8c0.2-0.6,0.6-1,1-1.4
		c0.4-0.4,0.9-0.7,1.5-0.9c0.6-0.2,1.2-0.3,1.9-0.3c0.7,0,1.3,0.1,1.9,0.3c0.6,0.2,1.1,0.5,1.5,0.9s0.7,0.9,1,1.4
		c0.2,0.6,0.4,1.2,0.4,1.8v0.2c0,0.7-0.1,1.3-0.4,1.8c-0.2,0.6-0.6,1-1,1.4s-0.9,0.7-1.5,0.9C116.7,129.8,116.1,129.9,115.4,129.9z
		 M115.4,127.7c0.5,0,1-0.2,1.4-0.6s0.6-0.9,0.6-1.6v-0.4c0-0.7-0.2-1.2-0.6-1.6c-0.4-0.4-0.8-0.6-1.4-0.6c-0.6,0-1,0.2-1.4,0.6
		c-0.4,0.4-0.5,0.9-0.5,1.6v0.4c0,0.7,0.2,1.2,0.6,1.6C114.4,127.5,114.8,127.7,115.4,127.7z"/>
</g>
<g id="XMLID_268_" class="st1">
	<path id="XMLID_290_" class="st2" d="M222.5,133.6c-0.7,0-1.3-0.1-1.9-0.3c-0.6-0.2-1.1-0.5-1.5-0.9s-0.7-0.9-1-1.4
		c-0.2-0.6-0.4-1.2-0.4-1.8v-0.2c0-0.7,0.1-1.3,0.4-1.8c0.2-0.6,0.6-1,1-1.4c0.4-0.4,0.9-0.7,1.5-0.9c0.6-0.2,1.2-0.3,1.9-0.3
		c0.7,0,1.3,0.1,1.9,0.3c0.6,0.2,1.1,0.5,1.5,0.9s0.7,0.9,1,1.4c0.2,0.6,0.4,1.2,0.4,1.8v0.2c0,0.7-0.1,1.3-0.4,1.8
		c-0.2,0.6-0.6,1-1,1.4s-0.9,0.7-1.5,0.9C223.9,133.5,223.2,133.6,222.5,133.6z M221.1,143.8c0,0-0.2,0-0.4,0s-0.4-0.1-0.6-0.3
		c-0.2-0.1-0.4-0.3-0.6-0.5c-0.2-0.2-0.3-0.4-0.3-0.7s0.1-0.5,0.2-0.7c0.1-0.2,0.3-0.5,0.6-0.8l14.7-16.7c0,0,0.2,0,0.4,0
		c0.2,0,0.4,0.1,0.6,0.2c0.2,0.1,0.4,0.3,0.6,0.5c0.2,0.2,0.3,0.4,0.3,0.7c0,0.2-0.1,0.4-0.2,0.7c-0.1,0.2-0.3,0.5-0.6,0.8
		L221.1,143.8z M222.6,131.3c0.6,0,1-0.2,1.4-0.6s0.5-0.9,0.5-1.6v-0.4c0-0.7-0.2-1.2-0.6-1.6s-0.8-0.6-1.4-0.6
		c-0.6,0-1,0.2-1.4,0.6s-0.5,0.9-0.5,1.6v0.4c0,0.7,0.2,1.2,0.6,1.6S222,131.3,222.6,131.3z M233.5,143.8c-0.7,0-1.3-0.1-1.9-0.3
		c-0.6-0.2-1.1-0.5-1.5-0.9s-0.7-0.9-1-1.4c-0.2-0.6-0.4-1.2-0.4-1.8V139c0-0.7,0.1-1.3,0.4-1.8c0.2-0.6,0.6-1,1-1.4
		c0.4-0.4,0.9-0.7,1.5-0.9c0.6-0.2,1.2-0.3,1.9-0.3c0.7,0,1.3,0.1,1.9,0.3c0.6,0.2,1.1,0.5,1.5,0.9s0.7,0.9,1,1.4
		c0.2,0.6,0.4,1.2,0.4,1.8v0.2c0,0.7-0.1,1.3-0.4,1.8c-0.2,0.6-0.6,1-1,1.4s-0.9,0.7-1.5,0.9C234.8,143.7,234.2,143.8,233.5,143.8z
		 M233.5,141.5c0.5,0,1-0.2,1.4-0.6s0.6-0.9,0.6-1.6v-0.4c0-0.7-0.2-1.2-0.6-1.6c-0.4-0.4-0.8-0.6-1.4-0.6c-0.6,0-1,0.2-1.4,0.6
		c-0.4,0.4-0.5,0.9-0.5,1.6v0.4c0,0.7,0.2,1.2,0.6,1.6S232.9,141.5,233.5,141.5z"/>
</g>
<g id="XMLID_14_">
</g>
<g id="XMLID_15_">
</g>
<g id="XMLID_16_">
</g>
<g id="XMLID_17_">
</g>
<g id="XMLID_18_">
</g>
<g id="XMLID_19_">
</g>
</svg>
