<?xml version="1.0" encoding="utf-8"?>
<!-- Generator: Adobe Illustrator 19.0.0, SVG Export Plug-In . SVG Version: 6.00 Build 0)  -->
<svg version="1.1" id="Capa_1" xmlns="http://www.w3.org/2000/svg" xmlns:xlink="http://www.w3.org/1999/xlink" x="0px" y="0px"
	 viewBox="-268 269.3 58 58" style="enable-background:new -268 269.3 58 58;" xml:space="preserve">
<style type="text/css">
	.st0{fill:#2CB742;}
	.st1{fill:#FFFFFF;}
</style>
<g>
	<path class="st0" d="M-268,327.3l5-15c-2.5-4.3-4-9.2-4-14.5c0-15.7,12.8-28.5,28.5-28.5S-210,282-210,297.8s-12.8,28.5-28.5,28.5
		c-4.8,0-9.3-1.2-13.3-3.3L-268,327.3z"/>
	<path class="st1" d="M-220.3,307.3c-1.3-2.5-6.2-5.3-6.2-5.3c-1.1-0.6-2.4-0.7-3,0.4c0,0-1.6,1.9-2,2.2c-1.8,1.2-3.5,1.2-5.2-0.5
		l-4-4l-4-4c-1.7-1.7-1.8-3.4-0.5-5.2c0.3-0.4,2.2-2,2.2-2c1.1-0.6,1-2,0.4-3c0,0-2.8-4.9-5.3-6.2c-1.1-0.6-2.4-0.4-3.2,0.5
		l-1.8,1.8c-5.6,5.6-2.8,11.9,2.7,17.4l5.1,5.1l5.1,5.1c5.6,5.6,11.9,8.3,17.4,2.7l1.8-1.8C-220,309.6-219.8,308.3-220.3,307.3z"/>
</g>
</svg>
